<svg width="16" height="16" viewBox="0 0 16 16" fill="none">
<path fill-rule="evenodd" clip-rule="evenodd" d="M13.1692 12.9846H1.84615C1.53846 13.3538 1.10769 13.4769 0.492308 13.4769C0.246154 13.4769 0 13.2308 0 12.9846C0 12.7385 0.246154 12.4923 0.492308 12.4923C1.29231 12.4923 1.53846 11.6923 1.66154 8.92308C1.72308 7.50769 1.78462 7.01539 1.84615 6.21538C1.84615 5.96923 1.90769 5.72308 1.96923 5.47692C2.27692 3.44615 3.50769 2.15385 5.53846 1.66154C5.66154 0.738462 6.52308 0 7.50769 0C8.49231 0 9.35385 0.738461 9.47692 1.72308C11.5077 2.21538 12.6769 3.44615 13.0462 5.53846C13.1077 5.78462 13.1077 6.03077 13.1692 6.27692C13.2308 7.01538 13.2923 7.56923 13.3538 8.98462C13.4769 11.8154 13.7231 12.5538 14.5231 12.5538C14.7692 12.5538 15.0154 12.8 15.0154 13.0462C15.0154 13.2923 14.7692 13.5385 14.5231 13.5385C13.9077 13.4769 13.4769 13.3538 13.1692 12.9846ZM5.53846 14.0308H9.53846C9.53846 15.1385 8.61539 16 7.56923 16C6.52308 16 5.53846 15.0769 5.53846 14.0308Z" fill="#1557BF"/>
</svg>
