<svg width="28" height="28" viewBox="0 0 28 28" fill="none" xmlns="http://www.w3.org/2000/svg">
<path d="M24.7188 0H3.28125C1.47197 0 0 1.47197 0 3.28125V24.7188C0 26.528 1.47197 28 3.28125 28H24.7188C26.528 28 28 26.528 28 24.7188V3.28125C28 1.47197 26.528 0 24.7188 0ZM3.28125 2.1875H24.7188C25.3218 2.1875 25.8125 2.67816 25.8125 3.28125V4.375H2.1875V3.28125C2.1875 2.67816 2.67816 2.1875 3.28125 2.1875ZM24.7188 25.8125H3.28125C2.67816 25.8125 2.1875 25.3218 2.1875 24.7188V6.5625H25.8125V24.7188C25.8125 25.3218 25.3218 25.8125 24.7188 25.8125Z" fill="#333333"/>
<path d="M21.6562 15.0938H19.3588C18.9228 12.9541 17.2334 11.2648 15.0938 10.8287V8.53125H12.9062V10.8287C10.7666 11.2648 9.07725 12.9541 8.64123 15.0938H6.34375V17.2812H21.6562V15.0938ZM14 12.9062C15.4259 12.9062 16.6416 13.8207 17.0931 15.0938H10.9069C11.3584 13.8207 12.5741 12.9062 14 12.9062Z" fill="#333333"/>
<path d="M16.1875 22.75C16.7916 22.75 17.2812 22.2603 17.2812 21.6562C17.2812 21.0522 16.7916 20.5625 16.1875 20.5625C15.5834 20.5625 15.0938 21.0522 15.0938 21.6562C15.0938 22.2603 15.5834 22.75 16.1875 22.75Z" fill="#333333"/>
<path d="M11.8125 22.75C12.4166 22.75 12.9062 22.2603 12.9062 21.6562C12.9062 21.0522 12.4166 20.5625 11.8125 20.5625C11.2084 20.5625 10.7188 21.0522 10.7188 21.6562C10.7188 22.2603 11.2084 22.75 11.8125 22.75Z" fill="#333333"/>
<path d="M19.7891 20.2417L21.2032 21.6558L19.7891 23.0699L21.3359 24.6167L24.2968 21.6558L21.3359 18.6949L19.7891 20.2417Z" fill="#333333"/>
<path d="M6.66405 18.6949L3.70322 21.6558L6.66405 24.6167L8.21094 23.0699L6.79678 21.6558L8.21094 20.2417L6.66405 18.6949Z" fill="#333333"/>
</svg>
